## Title: Auc:Util:AutoMagic
## Notes: Automates some repetitive tasks, such as auto-selling and bulk mailing.
##
## Interface: 80100
## Dependancies: Auc-Advanced
## OptionalDependencies: Auc-Util-Appraiser, Enchantrix, Auc-Util-ItemSuggest, LibDataBroker
##
## Version: <%version%> (<%codename%>)
## Revision: $Id$
## Author: Norganna's AddOns
## X-Part-Of: Auctioneer
## X-Category: Auction House
## X-Max-Interface: 80100
## X-URL: http://auctioneeraddon.com/
## X-Feedback: http://forums.norganna.org
##
Embed.xml
